<?xml version="1.0" encoding="utf-8"?>
<!-- Generator: Adobe Illustrator 24.0.0, SVG Export Plug-In . SVG Version: 6.00 Build 0)  -->
<svg version="1.1" id="圖層_1" xmlns="http://www.w3.org/2000/svg" xmlns:xlink="http://www.w3.org/1999/xlink" x="0px" y="0px"
	 viewBox="0 0 48 48" style="enable-background:new 0 0 48 48;" xml:space="preserve">
<style type="text/css">
	.st0{fill:#FFE0E4;}
	.st1{fill:#FFF7F8;}
	.st2{fill:#C28891;}
	.st3{font-family:'PingFangTC-Semibold-B5pc-H';}
	.st4{font-size:11.6417px;}
	.st5{fill:#FAE3D9;}
	.st6{fill:#E1F5F5;}
	.st7{fill:#E8F3D9;}
	.st8{fill:#FEFBD3;}
	.st9{fill:#E0D5E9;}
</style>
<path class="st1" d="M31.14,0H48v27.3C48,38.73,38.74,48,27.31,48H0V31.14C0,13.94,13.94,0,31.14,0"/>
<text transform="matrix(1 0 0 1 12.2908 23.815)" class="st2 st3 st4">熱門</text>
<text transform="matrix(1 0 0 1 12.2908 37.7852)" class="st2 st3 st4">產品</text>
</svg>
