<?xml version="1.0" encoding="utf-8"?>
<!-- Generator: Adobe Illustrator 24.0.0, SVG Export Plug-In . SVG Version: 6.00 Build 0)  -->
<svg version="1.1" id="圖層_1" xmlns="http://www.w3.org/2000/svg" xmlns:xlink="http://www.w3.org/1999/xlink" x="0px" y="0px"
	 viewBox="0 0 48 48" style="enable-background:new 0 0 48 48;" xml:space="preserve">
<style type="text/css">
	.st0{fill:#FAE3D9;}
	.st1{fill:#C28891;}
	.st2{font-family:'PingFangTC-Semibold-B5pc-H';}
	.st3{font-size:9px;}
</style>
<path class="st0" d="M31.1,0H48v27.3C48,38.7,38.7,48,27.3,48H0V31.1C0,13.9,13.9,0,31.1,0"/>
<text transform="matrix(1 0 0 1 5.1529 22.7026)" class="st1 st2 st3">Buy More</text>
<text transform="matrix(1 0 0 1 3.1367 34.2729)" class="st1 st2 st3">Save More</text>
</svg>
