<?xml version="1.0" encoding="utf-8"?>
<!-- Generator: Adobe Illustrator 24.0.0, SVG Export Plug-In . SVG Version: 6.00 Build 0)  -->
<svg version="1.1" id="Layer_1" xmlns="http://www.w3.org/2000/svg" xmlns:xlink="http://www.w3.org/1999/xlink" x="0px" y="0px"
	 viewBox="0 0 58 58" style="enable-background:new 0 0 58 58;" xml:space="preserve">
<style type="text/css">
	.st0{fill-rule:evenodd;clip-rule:evenodd;fill:#D8546A;}
</style>
<path class="st0" d="M45.9,42.1c-0.5,2.6-2.7,4.5-5.4,4.5H5.6c-3,0-5.6-2.4-5.6-5.4V16.8c0-3,2.5-5.4,5.6-5.4h34.9
	c2.6,0,4.9,1.9,5.4,4.5c0.1,0.8,0.1,2.7,0.1,4.5c1.3-0.9,2.5-1.7,3.7-2.4c1.7-1.1,3.1-1.9,3.9-2.4c0.9-0.5,1.9-0.8,2.9-0.3
	c1.2,0.6,1.5,1.7,1.5,2.9v21.3c0,1.2-0.3,2.4-1.4,2.9c-1.1,0.6-2.2,0.2-3.2-0.5L46,36.8C46,39,46.1,41.2,45.9,42.1L45.9,42.1z
	 M5.6,36.1v-8.5v-5.8l3.3,0V27v6l4.7,0l0,3.2L5.6,36.1L5.6,36.1z M19.7,21.9l3.2,0l2.3,10.7l2.4-10.7l3.2,0L29,29.4l-1.6,6.7h-4.7
	l-1.7-7.7L19.7,21.9L19.7,21.9z M32,36.2v-6.6v-7.7l8.8,0v3h-5.6v2.6h5.6v2.8h-5.6v3h5.6v2.9L32,36.2L32,36.2z M15.1,36.2v-7.6v-6.7
	h3.3v7v7.2H15.1L15.1,36.2z"/>
</svg>
