<?xml version="1.0" encoding="utf-8"?>
<!-- Generator: Adobe Illustrator 24.0.0, SVG Export Plug-In . SVG Version: 6.00 Build 0)  -->
<svg version="1.1" id="Layer_1" xmlns="http://www.w3.org/2000/svg" xmlns:xlink="http://www.w3.org/1999/xlink" x="0px" y="0px"
	 viewBox="0 0 58 58" style="enable-background:new 0 0 58 58;" xml:space="preserve">
<style type="text/css">
	.st0{fill:#D8546A;}
</style>
<g>
	<path class="st0" d="M53.1,27.8c0-0.4,0-0.8,0-1.2c0-5.9-2-11.3-5.3-15.6c0.3-0.7,0.2-1.6-0.4-2.2l-0.1-0.1
		C42.6,3.4,35.9,0.4,29,0.4c-7,0-13.7,3-18.4,8.3l-0.1,0.1c-0.6,0.6-0.7,1.5-0.4,2.2c-3.3,4.3-5.3,9.7-5.3,15.6c0,0.4,0,0.8,0,1.2
		c-0.9,1-1.5,2.2-1.5,3.7v6.9c0,2.9,2.4,5.3,5.3,5.3c0.2,0.9,1,1.5,2,1.5h2.2c1.1,0,2.1-0.9,2.1-2.1v-4.8v-6.9v-4.6
		c0-1.1-0.9-2.1-2.1-2.1h-2.2c-0.7,0-1.3,0.4-1.7,0.9c0.2-4.5,1.7-8.6,4.2-11.9c0.1,0,0.3,0,0.4,0c0,0,0,0,0.1,0
		c0.6,0,1.1-0.3,1.5-0.7c3.6-4,8.6-6.3,13.9-6.3c5.2,0,10.3,2.3,13.8,6.3c0.4,0.4,0.9,0.7,1.5,0.7c0.2,0,0.3,0,0.5-0.1
		c2.5,3.3,4.1,7.5,4.2,12c-0.4-0.6-1-0.9-1.7-0.9h-2.2c-1.1,0-2.1,0.9-2.1,2.1v4.6v6.9v4.8c0,1.1,0.9,2.1,2.1,2.1h0
		c-1.5,1.9-3.3,3.1-5.3,4c-0.8-1.2-2.4-1.9-3.9-1.6L29,49.1c-2,0.4-3.4,2.5-3,4.5l0.1,0.6c0.4,2,2.5,3.4,4.5,3l6.9-1.4
		c1.6-0.3,2.8-1.7,3-3.2c4.1-1.8,7.4-4.6,9.5-9c2.6-0.4,4.6-2.6,4.6-5.2v-6.9C54.6,30.1,54.1,28.8,53.1,27.8z"/>
	<path class="st0" d="M29.9,57.7c-2,0-3.7-1.4-4.2-3.4l-0.1-0.6c-0.5-2.3,1-4.6,3.3-5l6.9-1.4c1.5-0.3,3.1,0.2,4.1,1.4
		c1.8-0.8,3.2-1.9,4.4-3.2c-1-0.3-1.7-1.3-1.7-2.4V26.9c0-1.4,1.1-2.5,2.5-2.5h2.2c0.4,0,0.8,0.1,1.2,0.3c-0.3-3.8-1.7-7.4-3.9-10.5
		c-0.1,0-0.2,0-0.3,0c-0.7,0-1.3-0.3-1.8-0.8C39,9.5,34.1,7.2,29,7.2c-5.1,0-10.1,2.3-13.6,6.2c-0.5,0.5-1.1,0.8-1.8,0.8
		c0,0,0,0,0,0c-0.1,0-0.2,0-0.3,0c-2.2,3.1-3.6,6.6-3.9,10.4c0.4-0.2,0.8-0.3,1.2-0.3h2.2c1.4,0,2.5,1.1,2.5,2.5v16.2
		c0,1.4-1.1,2.5-2.5,2.5h-2.2c-1,0-1.9-0.6-2.3-1.6c-3-0.2-5.4-2.7-5.4-5.7v-6.9c0-1.4,0.5-2.8,1.5-3.8c0-0.4,0-0.7,0-1.1
		c0-5.7,1.8-11.1,5.2-15.6c-0.3-0.8-0.1-1.7,0.5-2.4l0.1-0.1C15.1,3.1,21.9,0,29,0c7,0,13.9,3,18.7,8.4l0.1,0.1
		c0.6,0.7,0.8,1.6,0.5,2.4c3.4,4.5,5.3,10,5.3,15.7c0,0.4,0,0.7,0,1.1c0.9,1.1,1.5,2.4,1.5,3.8v6.9c0,2.8-2,5.1-4.7,5.6
		c-2,4.1-5.1,7-9.4,8.9c-0.3,1.7-1.6,3-3.3,3.3l-6.9,1.4C30.5,57.7,30.2,57.7,29.9,57.7z M36.6,48c-0.2,0-0.5,0-0.7,0.1l-6.9,1.4
		c-1.8,0.4-3,2.2-2.6,4l0.1,0.6c0.4,1.8,2.2,3,4,2.6l6.9-1.4c1.4-0.3,2.4-1.4,2.6-2.8l0-0.2l0.2-0.1c4.3-1.8,7.3-4.7,9.3-8.8
		l0.1-0.2l0.2,0c2.4-0.3,4.2-2.4,4.2-4.8v-6.9c0-1.3-0.5-2.4-1.4-3.4L52.7,28l0-0.2c0-0.4,0-0.8,0-1.2c0-5.6-1.8-10.9-5.2-15.3
		L47.4,11l0.1-0.2c0.3-0.6,0.1-1.2-0.3-1.7L47.1,9C42.4,3.8,35.8,0.9,29,0.9c-6.8,0-13.4,3-18.1,8.1l-0.1,0.1
		c-0.4,0.5-0.5,1.1-0.3,1.7l0.1,0.2l-0.2,0.2c-3.4,4.4-5.2,9.7-5.2,15.3c0,0.4,0,0.8,0,1.2l0,0.2l-0.1,0.1c-0.9,0.9-1.4,2.1-1.4,3.4
		v6.9c0,2.7,2.2,4.9,4.9,4.9H9l0.1,0.3c0.2,0.7,0.8,1.2,1.6,1.2h2.2c0.9,0,1.6-0.7,1.6-1.6V26.9c0-0.9-0.7-1.6-1.6-1.6h-2.2
		c-0.5,0-1,0.3-1.3,0.7l-0.9,1.3l0.1-1.5c0.2-4.4,1.6-8.7,4.3-12.2l0.2-0.2l0.3,0c0.1,0,0.2,0,0.3,0c0.5,0,0.9-0.2,1.2-0.6
		c3.7-4.1,8.8-6.5,14.2-6.5c5.3,0,10.5,2.3,14.2,6.4c0.3,0.3,0.7,0.5,1.2,0.5c0.1,0,0.2,0,0.4,0l0.3-0.1l0.2,0.2
		c2.7,3.5,4.1,7.8,4.3,12.2l0.1,1.5L48.7,26c-0.3-0.4-0.8-0.7-1.3-0.7h-2.2c-0.9,0-1.6,0.7-1.6,1.6v16.2c0,0.9,0.7,1.6,1.6,1.6H46
		l-0.5,0.7c-1.4,1.8-3.2,3.1-5.5,4.2l-0.3,0.1l-0.2-0.3C38.7,48.5,37.7,48,36.6,48z"/>
</g>
</svg>
